Chapter3 Basic Data Wrangling with Tidyverse | Time Series Analysis With R
…
In the examples below, notice the use of a double equal sign ==, and also of the quotation marks to indicate the modalities of a categorical variable.

## # A tibble: 1 × 5
##   created_at          screen_name    device        
##   <dttm>              <chr>          <chr>         
## 1 2021-03-24 08:53:31 Oliver_Miguel1 Twitter for A…
## # ℹ 2 more variables: retweet_count <int>,
## #   log_retweet_count <dbl>

## # A tibble: 33 × 5
##    created_at          screen_name     device      
##    <dttm>              <chr>           <chr>       
##  1 2021-03-24 08:53:49 marcin_lukawski Twitter for…
##  2 2021-03-24 08:53:49 LebodyRanya     Twitter for…
##  3 2021-03-24 08:53:47 anshunandanpra4 Twitter for…
##  4 2021-03-24 08:53:44 insoumise007    Twitter for…
##  5 2021-03-24 08:53:43 Metamorfopsies  Twitter for…
##  6 2021-03-24 08:53:43 keepsmiling_130 Twitter for…
##  7 2021-03-24 08:53:43 lovebresil01    Twitter for…
##  8 2021-03-24 08:53:42 LightHealing    Twitter for…
##  9 2021-03-24 08:53:42 lewisabzueta    Twitter for…
## 10 2021-03-24 08:53:42 rosaesaa26      Twitter for…
## # ℹ 23 more rows
## # ℹ 2 more variables: retweet_count <int>,
## #   log_retweet_count <dbl>
…
